#include <stdio.h>
#define MAX 5

int main (int argc, char *argv[]) {
	int edad=0;
	const float PI=3.1416;

	printf("¿Cual es tu edad?:");
	scanf("%d",&edad);
	
	//MAX=6;
	//PI=3.14159265;
	printf("Tu edad es=%d \n",edad);
	printf("Maximo=%d",MAX);
	printf("Valor de PI=%f",PI);

	return 0;
}

